[
  {
    "text": "uh",
    "duration": 3000,
    "offset": 1199
  },
  {
    "text": "what's up everyone my name is Osco",
    "duration": 5820,
    "offset": 4680
  },
  {
    "text": "uh I like anime",
    "duration": 5401,
    "offset": 8099
  },
  {
    "text": "decentralization and virtual reality",
    "duration": 5760,
    "offset": 10500
  },
  {
    "text": "and in our probably second episode we're",
    "duration": 4020,
    "offset": 13500
  },
  {
    "text": "gonna talk about",
    "duration": 5099,
    "offset": 16260
  },
  {
    "text": "uh why I like anime and virtual reality",
    "duration": 5339,
    "offset": 17520
  },
  {
    "text": "um usually I'll put them in like three",
    "duration": 2701,
    "offset": 21359
  },
  {
    "text": "different parts but like two of them are",
    "duration": 3121,
    "offset": 22859
  },
  {
    "text": "very related so I'm like I'm asking",
    "duration": 3059,
    "offset": 24060
  },
  {
    "text": "right let's do",
    "duration": 3719,
    "offset": 25980
  },
  {
    "text": "the combo video for this one",
    "duration": 6301,
    "offset": 27119
  },
  {
    "text": "so when I was growing up",
    "duration": 6001,
    "offset": 29699
  },
  {
    "text": "um in the old suburbs",
    "duration": 4380,
    "offset": 33420
  },
  {
    "text": "so first off",
    "duration": 3120,
    "offset": 35700
  },
  {
    "text": "um",
    "duration": 3980,
    "offset": 37800
  },
  {
    "text": "I went to",
    "duration": 2960,
    "offset": 38820
  },
  {
    "text": "um I was a big in two days",
    "duration": 4140,
    "offset": 42480
  },
  {
    "text": "when I was growing up for entertainment",
    "duration": 4300,
    "offset": 44300
  },
  {
    "text": "this was like way back before uh",
    "duration": 4439,
    "offset": 46620
  },
  {
    "text": "Fortnight and Tick Tock came out I used",
    "duration": 4860,
    "offset": 48600
  },
  {
    "text": "to go to the library to read books for",
    "duration": 4741,
    "offset": 51059
  },
  {
    "text": "fun so I was like a super Avid Reader",
    "duration": 5040,
    "offset": 53460
  },
  {
    "text": "that was great I was like cooking those",
    "duration": 3960,
    "offset": 55800
  },
  {
    "text": "books every day in like elementary",
    "duration": 4980,
    "offset": 58500
  },
  {
    "text": "middle school and then in uh",
    "duration": 5579,
    "offset": 59760
  },
  {
    "text": "High School I got an Xbox so like all",
    "duration": 4139,
    "offset": 63480
  },
  {
    "text": "that kind of flew out the window",
    "duration": 4921,
    "offset": 65338
  },
  {
    "text": "but the reason why I bring those up is",
    "duration": 4021,
    "offset": 67619
  },
  {
    "text": "because a lot of the stories that I read",
    "duration": 3780,
    "offset": 70260
  },
  {
    "text": "that I think the three most notable the",
    "duration": 4620,
    "offset": 71640
  },
  {
    "text": "series that I met from my childhood were",
    "duration": 3960,
    "offset": 74040
  },
  {
    "text": "like uh",
    "duration": 4679,
    "offset": 76260
  },
  {
    "text": "red wall so like it's a series uh like",
    "duration": 4259,
    "offset": 78000
  },
  {
    "text": "surprisingly graphic I don't know why it",
    "duration": 2341,
    "offset": 80939
  },
  {
    "text": "was in like Elementary School library",
    "duration": 4021,
    "offset": 82259
  },
  {
    "text": "but like surprising graphic series about",
    "duration": 5159,
    "offset": 83280
  },
  {
    "text": "it's like Fire Emblem if you know how",
    "duration": 4500,
    "offset": 86280
  },
  {
    "text": "Fireland is it's like a medieval",
    "duration": 4141,
    "offset": 88439
  },
  {
    "text": "Conquest story with different light",
    "duration": 3420,
    "offset": 90780
  },
  {
    "text": "branching narratives like it was a",
    "duration": 3300,
    "offset": 92580
  },
  {
    "text": "pretty cool series honestly I might go",
    "duration": 2940,
    "offset": 94200
  },
  {
    "text": "back and read it",
    "duration": 3599,
    "offset": 95880
  },
  {
    "text": "and I vividly remember like each of the",
    "duration": 4019,
    "offset": 97140
  },
  {
    "text": "different races because uh they weren't",
    "duration": 3000,
    "offset": 99479
  },
  {
    "text": "humans in that series they were like",
    "duration": 3541,
    "offset": 101159
  },
  {
    "text": "they were little animals so like there",
    "duration": 3841,
    "offset": 102479
  },
  {
    "text": "was like a rat guy there was like rabbit",
    "duration": 5059,
    "offset": 104700
  },
  {
    "text": "guys uh the more people talked very like",
    "duration": 5100,
    "offset": 106320
  },
  {
    "text": "exaggerated so like you have to",
    "duration": 3220,
    "offset": 109759
  },
  {
    "text": "literally read out loud what they were",
    "duration": 3059,
    "offset": 111420
  },
  {
    "text": "saying because if you read the text it",
    "duration": 4080,
    "offset": 112979
  },
  {
    "text": "would be like and you're like oh wait",
    "duration": 4080,
    "offset": 114479
  },
  {
    "text": "mate we were going down there and like",
    "duration": 4919,
    "offset": 117060
  },
  {
    "text": "it was cool this red ball was cool",
    "duration": 6360,
    "offset": 118560
  },
  {
    "text": "um red some of Hank the cow dog this is",
    "duration": 4740,
    "offset": 121979
  },
  {
    "text": "like a throwback I don't remember what",
    "duration": 2879,
    "offset": 124920
  },
  {
    "text": "the guy's gonna do it's just like a",
    "duration": 2581,
    "offset": 126719
  },
  {
    "text": "scare dog but like it was a cool Series",
    "duration": 5281,
    "offset": 127799
  },
  {
    "text": "in Harry Potter you know the OG series",
    "duration": 5760,
    "offset": 129300
  },
  {
    "text": "um but that's kind of like a lot of I",
    "duration": 3540,
    "offset": 133080
  },
  {
    "text": "guess you can say like Western type",
    "duration": 2759,
    "offset": 135060
  },
  {
    "text": "stories",
    "duration": 3180,
    "offset": 136620
  },
  {
    "text": "uh it wasn't super big into like",
    "duration": 4140,
    "offset": 137819
  },
  {
    "text": "superhero stuff because uh that which",
    "duration": 4860,
    "offset": 139800
  },
  {
    "text": "was the big thing for other people",
    "duration": 4741,
    "offset": 141959
  },
  {
    "text": "for me because it just felt like it was",
    "duration": 4439,
    "offset": 144660
  },
  {
    "text": "too far removed from reality for me to",
    "duration": 4619,
    "offset": 146700
  },
  {
    "text": "be relatable to those characters in the",
    "duration": 4201,
    "offset": 149099
  },
  {
    "text": "sense",
    "duration": 5101,
    "offset": 151319
  },
  {
    "text": "like you know people like Superman and",
    "duration": 4920,
    "offset": 153300
  },
  {
    "text": "Batman and like the X-Men they're all",
    "duration": 2459,
    "offset": 156420
  },
  {
    "text": "like",
    "duration": 2700,
    "offset": 158220
  },
  {
    "text": "as far as I saw from the movies they",
    "duration": 4140,
    "offset": 158879
  },
  {
    "text": "they were like born great they were",
    "duration": 3599,
    "offset": 160920
  },
  {
    "text": "already like abstracted away from being",
    "duration": 2641,
    "offset": 163019
  },
  {
    "text": "normal humans so they had different",
    "duration": 2461,
    "offset": 164519
  },
  {
    "text": "problems so like",
    "duration": 2520,
    "offset": 165660
  },
  {
    "text": "you're watching someone else's life",
    "duration": 2339,
    "offset": 166980
  },
  {
    "text": "you're not watching something you can",
    "duration": 3240,
    "offset": 168180
  },
  {
    "text": "kind of relate to in like immerse",
    "duration": 3420,
    "offset": 169319
  },
  {
    "text": "yourself in at least for me kind of",
    "duration": 2700,
    "offset": 171420
  },
  {
    "text": "thing",
    "duration": 6241,
    "offset": 172739
  },
  {
    "text": "so we we go to the high school Osco era",
    "duration": 6780,
    "offset": 174120
  },
  {
    "text": "Xbox era",
    "duration": 3119,
    "offset": 178980
  },
  {
    "text": "um this was around the time that YouTube",
    "duration": 4500,
    "offset": 180900
  },
  {
    "text": "came out like probably 20 2008",
    "duration": 5220,
    "offset": 182099
  },
  {
    "text": "and YouTube back then was like pretty",
    "duration": 4380,
    "offset": 185400
  },
  {
    "text": "cool because no one knew there was no Mr",
    "duration": 4321,
    "offset": 187319
  },
  {
    "text": "Beast this was like before anyone knew",
    "duration": 2640,
    "offset": 189780
  },
  {
    "text": "what we were doing we're just like",
    "duration": 2640,
    "offset": 191640
  },
  {
    "text": "uploading cool stuff just uh just to",
    "duration": 3599,
    "offset": 192420
  },
  {
    "text": "show what we have in the world and",
    "duration": 3840,
    "offset": 194280
  },
  {
    "text": "especially a lot of experimental stuff",
    "duration": 3841,
    "offset": 196019
  },
  {
    "text": "and the genre that I stumble into",
    "duration": 4619,
    "offset": 198120
  },
  {
    "text": "somehow like uh like you know SpongeBob",
    "duration": 4920,
    "offset": 199860
  },
  {
    "text": "kid in my era so look at SpongeBob memes",
    "duration": 4261,
    "offset": 202739
  },
  {
    "text": "and then people would spin those like",
    "duration": 4280,
    "offset": 204780
  },
  {
    "text": "draw moves to like these things called",
    "duration": 5420,
    "offset": 207000
  },
  {
    "text": "YouTube poop",
    "duration": 3360,
    "offset": 209060
  },
  {
    "text": "if you look that up now I almost feel",
    "duration": 4360,
    "offset": 213379
  },
  {
    "text": "like you would not get the the authoring",
    "duration": 3000,
    "offset": 215940
  },
  {
    "text": "experience because like a lot of stuff",
    "duration": 3720,
    "offset": 217739
  },
  {
    "text": "was just like really bad like it was",
    "duration": 4140,
    "offset": 218940
  },
  {
    "text": "like mixing a lot of like the sentences",
    "duration": 3541,
    "offset": 221459
  },
  {
    "text": "to make the character say like",
    "duration": 3719,
    "offset": 223080
  },
  {
    "text": "slurs or like absurd things they would",
    "duration": 4140,
    "offset": 225000
  },
  {
    "text": "not normally say and it was so choppy",
    "duration": 4381,
    "offset": 226799
  },
  {
    "text": "but like you were like anticipation of",
    "duration": 3300,
    "offset": 229140
  },
  {
    "text": "the choppiness you kind of like went",
    "duration": 3419,
    "offset": 231180
  },
  {
    "text": "with it and it was funny",
    "duration": 3600,
    "offset": 232440
  },
  {
    "text": "um it led to a lot of expectations a lot",
    "duration": 3420,
    "offset": 234599
  },
  {
    "text": "of cool videos and going down that",
    "duration": 5699,
    "offset": 236040
  },
  {
    "text": "rabbit hole when I was in my YouTube era",
    "duration": 5580,
    "offset": 238019
  },
  {
    "text": "actually got to",
    "duration": 4801,
    "offset": 241739
  },
  {
    "text": "this next part which is like anime dub",
    "duration": 4741,
    "offset": 243599
  },
  {
    "text": "parody so this is before I knew anime",
    "duration": 5100,
    "offset": 246540
  },
  {
    "text": "was I knew four Kiss TV was like I saw",
    "duration": 7020,
    "offset": 248340
  },
  {
    "text": "one piece on TV in the morning oh that's",
    "duration": 5819,
    "offset": 251640
  },
  {
    "text": "a throwback too um Saturday morning",
    "duration": 4080,
    "offset": 255360
  },
  {
    "text": "cartoons I think I might be lost",
    "duration": 3900,
    "offset": 257459
  },
  {
    "text": "interest and actually got those because",
    "duration": 4620,
    "offset": 259440
  },
  {
    "text": "cable still think back in the day",
    "duration": 4381,
    "offset": 261359
  },
  {
    "text": "um but that's the first time I like saw",
    "duration": 3359,
    "offset": 264060
  },
  {
    "text": "anime but I didn't realize like what it",
    "duration": 2519,
    "offset": 265740
  },
  {
    "text": "was I just thought it was like another",
    "duration": 2581,
    "offset": 267419
  },
  {
    "text": "kind of cartoon and because of the fact",
    "duration": 3061,
    "offset": 268259
  },
  {
    "text": "that like",
    "duration": 2940,
    "offset": 270000
  },
  {
    "text": "you had to wake up early I didn't know",
    "duration": 3780,
    "offset": 271320
  },
  {
    "text": "how to know",
    "duration": 5280,
    "offset": 272940
  },
  {
    "text": "what time the shows kind of on like it",
    "duration": 4920,
    "offset": 275100
  },
  {
    "text": "was literally like like going to wake up",
    "duration": 3479,
    "offset": 278220
  },
  {
    "text": "for your job like Saturday morning like",
    "duration": 3480,
    "offset": 280020
  },
  {
    "text": "I'm not waking up early as a kid to",
    "duration": 3481,
    "offset": 281699
  },
  {
    "text": "watch a cartoon like that's stupid so I",
    "duration": 3419,
    "offset": 283500
  },
  {
    "text": "think it's one piece but like we're in",
    "duration": 3600,
    "offset": 285180
  },
  {
    "text": "the high school era uh go to anime death",
    "duration": 3481,
    "offset": 286919
  },
  {
    "text": "parody they didn't know what that was",
    "duration": 3300,
    "offset": 288780
  },
  {
    "text": "called I was just like it was just",
    "duration": 4019,
    "offset": 290400
  },
  {
    "text": "called like abridgement that's all I saw",
    "duration": 4440,
    "offset": 292080
  },
  {
    "text": "in like the title right and the video",
    "duration": 4581,
    "offset": 294419
  },
  {
    "text": "series I assembled upon was called",
    "duration": 5940,
    "offset": 296520
  },
  {
    "text": "it's called code mint so if you've",
    "duration": 5680,
    "offset": 299000
  },
  {
    "text": "watched it uh you're you're a goat and",
    "duration": 6179,
    "offset": 302460
  },
  {
    "text": "it's hilarious I I think it's so bizarre",
    "duration": 5700,
    "offset": 304680
  },
  {
    "text": "and like the first time you watch it you",
    "duration": 2581,
    "offset": 308639
  },
  {
    "text": "just",
    "duration": 2400,
    "offset": 310380
  },
  {
    "text": "you're just here for the ride just have",
    "duration": 3000,
    "offset": 311220
  },
  {
    "text": "no idea what's going on but like the",
    "duration": 2639,
    "offset": 312780
  },
  {
    "text": "more times you watched it I think I",
    "duration": 2520,
    "offset": 314220
  },
  {
    "text": "watched it maybe like five six times by",
    "duration": 2220,
    "offset": 315419
  },
  {
    "text": "now because it's like a very short",
    "duration": 2220,
    "offset": 316740
  },
  {
    "text": "series",
    "duration": 2761,
    "offset": 317639
  },
  {
    "text": "but like every time that I've watched it",
    "duration": 2820,
    "offset": 318960
  },
  {
    "text": "like I just get something new like it's",
    "duration": 3900,
    "offset": 320400
  },
  {
    "text": "and a lot of the jokes some of them they",
    "duration": 4560,
    "offset": 321780
  },
  {
    "text": "don't age not because like they got",
    "duration": 3480,
    "offset": 324300
  },
  {
    "text": "canceled with the hvs because like the",
    "duration": 3660,
    "offset": 326340
  },
  {
    "text": "jokes got dated but like some of the",
    "duration": 5040,
    "offset": 327780
  },
  {
    "text": "jokes like oh Priceless Timeless",
    "duration": 3660,
    "offset": 330000
  },
  {
    "text": "um",
    "duration": 3000,
    "offset": 332820
  },
  {
    "text": "anyway like I really like that show a",
    "duration": 2879,
    "offset": 333660
  },
  {
    "text": "lot",
    "duration": 2400,
    "offset": 335820
  },
  {
    "text": "so and that was like an abridgement of",
    "duration": 2880,
    "offset": 336539
  },
  {
    "text": "anime so like I was like okay this",
    "duration": 2640,
    "offset": 338220
  },
  {
    "text": "Show's pretty cool um what was the",
    "duration": 2641,
    "offset": 339419
  },
  {
    "text": "actual show like because I knew it",
    "duration": 3660,
    "offset": 340860
  },
  {
    "text": "wasn't the actual show so I went back I",
    "duration": 4859,
    "offset": 342060
  },
  {
    "text": "watched the actual Code Geass and uh",
    "duration": 3480,
    "offset": 344520
  },
  {
    "text": "that",
    "duration": 3301,
    "offset": 346919
  },
  {
    "text": "blew my mind",
    "duration": 4979,
    "offset": 348000
  },
  {
    "text": "like as I said earlier about like uh I",
    "duration": 4560,
    "offset": 350220
  },
  {
    "text": "don't like Western like at the time",
    "duration": 3361,
    "offset": 352979
  },
  {
    "text": "Western type media because a lot of the",
    "duration": 3000,
    "offset": 354780
  },
  {
    "text": "characters kind of fell in like the",
    "duration": 3240,
    "offset": 356340
  },
  {
    "text": "realm of like extreme fantasy like you",
    "duration": 3560,
    "offset": 357780
  },
  {
    "text": "can relate to them",
    "duration": 3959,
    "offset": 359580
  },
  {
    "text": "was like kind of like that because the",
    "duration": 4600,
    "offset": 361340
  },
  {
    "text": "main character had like the super super",
    "duration": 4080,
    "offset": 363539
  },
  {
    "text": "weird eyeball power like you don't know",
    "duration": 4020,
    "offset": 365940
  },
  {
    "text": "if you see the show",
    "duration": 6000,
    "offset": 367620
  },
  {
    "text": "but this it was like a very thrilling",
    "duration": 5700,
    "offset": 369960
  },
  {
    "text": "ride like from being together and I just",
    "duration": 4019,
    "offset": 373620
  },
  {
    "text": "really admired the animation style and",
    "duration": 4500,
    "offset": 375660
  },
  {
    "text": "like I I was so obsessed with like",
    "duration": 4141,
    "offset": 377639
  },
  {
    "text": "finishing the show when I was watching",
    "duration": 3060,
    "offset": 380160
  },
  {
    "text": "it like it was like I said High School",
    "duration": 3539,
    "offset": 381780
  },
  {
    "text": "right so like uh I was supposed to be",
    "duration": 3900,
    "offset": 383220
  },
  {
    "text": "sent from SATs I got like a really",
    "duration": 3841,
    "offset": 385319
  },
  {
    "text": "average score the first time I was",
    "duration": 3000,
    "offset": 387120
  },
  {
    "text": "supposed to be studying for the next",
    "duration": 4140,
    "offset": 389160
  },
  {
    "text": "time I take it and instead of studying I",
    "duration": 5639,
    "offset": 390120
  },
  {
    "text": "just binged all of cookie awesome and I",
    "duration": 3959,
    "offset": 393300
  },
  {
    "text": "went to go take the exam again and then",
    "duration": 2821,
    "offset": 395759
  },
  {
    "text": "because I had a study I got literally",
    "duration": 3241,
    "offset": 397259
  },
  {
    "text": "the exact same score like that's that's",
    "duration": 4260,
    "offset": 398580
  },
  {
    "text": "hilarious to me um",
    "duration": 5300,
    "offset": 400500
  },
  {
    "text": "exact same score",
    "duration": 2960,
    "offset": 402840
  },
  {
    "text": "um I was so like on that show like on",
    "duration": 4921,
    "offset": 406319
  },
  {
    "text": "one for that show that that was like",
    "duration": 3720,
    "offset": 408900
  },
  {
    "text": "around time I was applying for colleges",
    "duration": 3420,
    "offset": 411240
  },
  {
    "text": "and then I distinctly remember",
    "duration": 4019,
    "offset": 412620
  },
  {
    "text": "um for one of the colleges the question",
    "duration": 3000,
    "offset": 414660
  },
  {
    "text": "like you have to do like College",
    "duration": 2881,
    "offset": 416639
  },
  {
    "text": "acceptance that says that College",
    "duration": 3720,
    "offset": 417660
  },
  {
    "text": "acceptance essays",
    "duration": 4140,
    "offset": 419520
  },
  {
    "text": "and then the topic was like name an",
    "duration": 5120,
    "offset": 421380
  },
  {
    "text": "inspirational figure in your life",
    "duration": 6140,
    "offset": 423660
  },
  {
    "text": "maybe they have an influential leader",
    "duration": 5680,
    "offset": 426500
  },
  {
    "text": "and then like I should start them off",
    "duration": 3540,
    "offset": 429800
  },
  {
    "text": "okay",
    "duration": 4459,
    "offset": 432180
  },
  {
    "text": "awesome like this dude this dude [ __ ]",
    "duration": 7000,
    "offset": 433340
  },
  {
    "text": "this dude gave it all up to save the",
    "duration": 5921,
    "offset": 436639
  },
  {
    "text": "world that's a spoiler maybe not it's",
    "duration": 4139,
    "offset": 440340
  },
  {
    "text": "been a hot minute but uh I wrote about",
    "duration": 4380,
    "offset": 442560
  },
  {
    "text": "that and then uh I am shocked that they",
    "duration": 4741,
    "offset": 444479
  },
  {
    "text": "even like accepted me every College said",
    "duration": 4080,
    "offset": 446940
  },
  {
    "text": "that to me but that one is also said to",
    "duration": 4319,
    "offset": 449220
  },
  {
    "text": "me that like baffled the hell out of me",
    "duration": 4980,
    "offset": 451020
  },
  {
    "text": "um so what one day I will email the",
    "duration": 3961,
    "offset": 453539
  },
  {
    "text": "admissions office and ask for a copy",
    "duration": 2819,
    "offset": 456000
  },
  {
    "text": "that essay because I'm surely they must",
    "duration": 3660,
    "offset": 457500
  },
  {
    "text": "have it and they made somewhere and",
    "duration": 5521,
    "offset": 458819
  },
  {
    "text": "maybe read it aloud um okay like And",
    "duration": 6120,
    "offset": 461160
  },
  {
    "text": "subscribe and then maybe I'll do it",
    "duration": 6180,
    "offset": 464340
  },
  {
    "text": "but uh yeah we're there but uh the story",
    "duration": 4680,
    "offset": 467280
  },
  {
    "text": "doesn't end there with the anime so like",
    "duration": 3600,
    "offset": 470520
  },
  {
    "text": "I was with code yes but I wasn't with",
    "duration": 5459,
    "offset": 471960
  },
  {
    "text": "anime necessarily so uh one of the",
    "duration": 5400,
    "offset": 474120
  },
  {
    "text": "things that kodias is noted for it has",
    "duration": 4500,
    "offset": 477419
  },
  {
    "text": "like some of the most Banger like uh",
    "duration": 4260,
    "offset": 479520
  },
  {
    "text": "opening and ending songs of any anime",
    "duration": 4021,
    "offset": 481919
  },
  {
    "text": "series like every song absolutely hit in",
    "duration": 3419,
    "offset": 483780
  },
  {
    "text": "that whole series",
    "duration": 2759,
    "offset": 485940
  },
  {
    "text": "and I was going on YouTube I was like",
    "duration": 4620,
    "offset": 487199
  },
  {
    "text": "rocking out jamming like uh what's that",
    "duration": 6620,
    "offset": 488699
  },
  {
    "text": "one uh opening from one",
    "duration": 3500,
    "offset": 491819
  },
  {
    "text": "and then",
    "duration": 4479,
    "offset": 498560
  },
  {
    "text": "this guy",
    "duration": 5380,
    "offset": 500900
  },
  {
    "text": "[ __ ] this guy long [ __ ] [ __ ]",
    "duration": 5940,
    "offset": 503039
  },
  {
    "text": "you said oh you guys like this series",
    "duration": 5580,
    "offset": 506280
  },
  {
    "text": "you should watch Sword Art Online",
    "duration": 4680,
    "offset": 508979
  },
  {
    "text": "it's just like this",
    "duration": 3859,
    "offset": 511860
  },
  {
    "text": "first off you're a liar they're not",
    "duration": 4861,
    "offset": 513659
  },
  {
    "text": "besides the fact that they were both",
    "duration": 4481,
    "offset": 515719
  },
  {
    "text": "in the genre of anime they're like",
    "duration": 3959,
    "offset": 518520
  },
  {
    "text": "nothing alike in story in character in",
    "duration": 3899,
    "offset": 520200
  },
  {
    "text": "World building like nothing like nothing",
    "duration": 2941,
    "offset": 522479
  },
  {
    "text": "alike",
    "duration": 3661,
    "offset": 524099
  },
  {
    "text": "but thank you random YouTube commenter",
    "duration": 5220,
    "offset": 525420
  },
  {
    "text": "for putting me on arguably the best",
    "duration": 5220,
    "offset": 527760
  },
  {
    "text": "series I've ever like watched in my",
    "duration": 4199,
    "offset": 530640
  },
  {
    "text": "entire life",
    "duration": 4620,
    "offset": 532980
  },
  {
    "text": "and the reason I like Sword Art a lot I",
    "duration": 4021,
    "offset": 534839
  },
  {
    "text": "actually got lucky because I started to",
    "duration": 2400,
    "offset": 537600
  },
  {
    "text": "watch it in the middle of the first",
    "duration": 2460,
    "offset": 538860
  },
  {
    "text": "season being released so like I was",
    "duration": 2880,
    "offset": 540000
  },
  {
    "text": "there basically at the Advent I wasn't",
    "duration": 2820,
    "offset": 541320
  },
  {
    "text": "as early as the people reading outline",
    "duration": 3420,
    "offset": 542880
  },
  {
    "text": "obviously because I was in Japanese but",
    "duration": 3780,
    "offset": 544140
  },
  {
    "text": "I was there like the cusp of it being",
    "duration": 3180,
    "offset": 546300
  },
  {
    "text": "released and it just felt like such an",
    "duration": 3240,
    "offset": 547920
  },
  {
    "text": "amazing world",
    "duration": 4859,
    "offset": 549480
  },
  {
    "text": "because it was about like a regular like",
    "duration": 5760,
    "offset": 551160
  },
  {
    "text": "a regular dude like regular dude gets",
    "duration": 4801,
    "offset": 554339
  },
  {
    "text": "trapped in like this death game and then",
    "duration": 3720,
    "offset": 556920
  },
  {
    "text": "this is his trials tribulations like",
    "duration": 3420,
    "offset": 559140
  },
  {
    "text": "going through adolescence like figuring",
    "duration": 3300,
    "offset": 560640
  },
  {
    "text": "out how to interact with people like",
    "duration": 2940,
    "offset": 562560
  },
  {
    "text": "figuring out his own place in this world",
    "duration": 3899,
    "offset": 563940
  },
  {
    "text": "and then overcoming those trials because",
    "duration": 4440,
    "offset": 565500
  },
  {
    "text": "he found something to essentially like",
    "duration": 5101,
    "offset": 567839
  },
  {
    "text": "protect I was like I'm crying right now",
    "duration": 5459,
    "offset": 569940
  },
  {
    "text": "I don't know I'm crying camera",
    "duration": 5160,
    "offset": 572940
  },
  {
    "text": "but I like that series a lot and I",
    "duration": 4141,
    "offset": 575399
  },
  {
    "text": "really like the VR element because I",
    "duration": 3239,
    "offset": 578100
  },
  {
    "text": "just felt like something",
    "duration": 3840,
    "offset": 579540
  },
  {
    "text": "like I I didn't I don't like fantasy",
    "duration": 3541,
    "offset": 581339
  },
  {
    "text": "stuff in the sense that like it feels",
    "duration": 3120,
    "offset": 583380
  },
  {
    "text": "too far with reality reverse reality is",
    "duration": 3720,
    "offset": 584880
  },
  {
    "text": "just like it almost feels like one world",
    "duration": 3120,
    "offset": 586500
  },
  {
    "text": "over",
    "duration": 3000,
    "offset": 588600
  },
  {
    "text": "and that what's got me excited about the",
    "duration": 3360,
    "offset": 589620
  },
  {
    "text": "whole genre",
    "duration": 3179,
    "offset": 591600
  },
  {
    "text": "um the whole the whole genre of anime",
    "duration": 4080,
    "offset": 592980
  },
  {
    "text": "like after that you know big isekai fan",
    "duration": 3721,
    "offset": 594779
  },
  {
    "text": "that's like a slur for some people the I",
    "duration": 4020,
    "offset": 597060
  },
  {
    "text": "word sorry I like that genre",
    "duration": 4380,
    "offset": 598500
  },
  {
    "text": "it's goofy because it follows a Trope",
    "duration": 3480,
    "offset": 601080
  },
  {
    "text": "like you know I describe to you the",
    "duration": 3240,
    "offset": 602880
  },
  {
    "text": "basic kind of Sword Art but slowly just",
    "duration": 3420,
    "offset": 604560
  },
  {
    "text": "like regular dude go somewhere else",
    "duration": 3300,
    "offset": 606120
  },
  {
    "text": "becomes a great person kind of thing",
    "duration": 3780,
    "offset": 607980
  },
  {
    "text": "sometimes it's like unjustified like and",
    "duration": 3720,
    "offset": 609420
  },
  {
    "text": "then like the characters have any growth",
    "duration": 3900,
    "offset": 611760
  },
  {
    "text": "but like the good series like has um",
    "duration": 5460,
    "offset": 613140
  },
  {
    "text": "progress over like why they were I guess",
    "duration": 5580,
    "offset": 615660
  },
  {
    "text": "very normal or even like subpar in their",
    "duration": 5100,
    "offset": 618600
  },
  {
    "text": "old world and like figuring out a way to",
    "duration": 4140,
    "offset": 621240
  },
  {
    "text": "actually look to the potential that's",
    "duration": 3420,
    "offset": 623700
  },
  {
    "text": "the kind of stuff that I want to do",
    "duration": 4139,
    "offset": 625380
  },
  {
    "text": "and that's why I'm like pretty hooked on",
    "duration": 5279,
    "offset": 627120
  },
  {
    "text": "the VR aspect as well because I think",
    "duration": 5281,
    "offset": 629519
  },
  {
    "text": "that's as close as we can get to isekai",
    "duration": 4141,
    "offset": 632399
  },
  {
    "text": "with it within staying in the realm of",
    "duration": 3840,
    "offset": 634800
  },
  {
    "text": "reality of like human earth like human",
    "duration": 4020,
    "offset": 636540
  },
  {
    "text": "physical reality kind of thing",
    "duration": 4139,
    "offset": 638640
  },
  {
    "text": "and I just like it because it's a whole",
    "duration": 4620,
    "offset": 640560
  },
  {
    "text": "new genre like every time I put on the",
    "duration": 4321,
    "offset": 642779
  },
  {
    "text": "VR headset like oh here's the funny",
    "duration": 3899,
    "offset": 645180
  },
  {
    "text": "thing too so",
    "duration": 5040,
    "offset": 647100
  },
  {
    "text": "when Sword Art first came out I think it",
    "duration": 5161,
    "offset": 649079
  },
  {
    "text": "was like right before maybe right during",
    "duration": 6120,
    "offset": 652140
  },
  {
    "text": "the time that the Oculus that was five",
    "duration": 7500,
    "offset": 654240
  },
  {
    "text": "Oculus uh Rift Rift is the one yeah came",
    "duration": 6240,
    "offset": 658260
  },
  {
    "text": "out and like it was a pretty bad time to",
    "duration": 5880,
    "offset": 661740
  },
  {
    "text": "be a VR fan because",
    "duration": 4380,
    "offset": 664500
  },
  {
    "text": "oh there we go",
    "duration": 4020,
    "offset": 667620
  },
  {
    "text": "because uh you had to be really really",
    "duration": 4260,
    "offset": 668880
  },
  {
    "text": "up there with money to be able to pay",
    "duration": 3060,
    "offset": 671640
  },
  {
    "text": "for this very nebulous hobby where",
    "duration": 3600,
    "offset": 673140
  },
  {
    "text": "nothing existed yet like you needed like",
    "duration": 4319,
    "offset": 674700
  },
  {
    "text": "a two thousand dollar PC like a Tesla",
    "duration": 4740,
    "offset": 676740
  },
  {
    "text": "headset this 4K entry fee just to get in",
    "duration": 4801,
    "offset": 679019
  },
  {
    "text": "right so of course I couldn't get into",
    "duration": 4680,
    "offset": 681480
  },
  {
    "text": "this uh couldn't get into the VR field",
    "duration": 5220,
    "offset": 683820
  },
  {
    "text": "like as early as I wanted to",
    "duration": 4980,
    "offset": 686160
  },
  {
    "text": "um my biggest regret from college",
    "duration": 4500,
    "offset": 689040
  },
  {
    "text": "amongst many regrets uh I don't have",
    "duration": 3720,
    "offset": 691140
  },
  {
    "text": "that many just like a couple like small",
    "duration": 3120,
    "offset": 693540
  },
  {
    "text": "things but the fact that there was a",
    "duration": 4140,
    "offset": 694860
  },
  {
    "text": "[ __ ] VR Club at my school and they",
    "duration": 4020,
    "offset": 696660
  },
  {
    "text": "had the Riff set up a couple other",
    "duration": 3300,
    "offset": 699000
  },
  {
    "text": "headsets and like a full library of",
    "duration": 2399,
    "offset": 700680
  },
  {
    "text": "games",
    "duration": 2219,
    "offset": 702300
  },
  {
    "text": "for some reason I didn't know until like",
    "duration": 3061,
    "offset": 703079
  },
  {
    "text": "the last year I was there and by then I",
    "duration": 2701,
    "offset": 704519
  },
  {
    "text": "was like too busy doing other stuff like",
    "duration": 3000,
    "offset": 706140
  },
  {
    "text": "literally preparing to go get a job and",
    "duration": 4500,
    "offset": 707220
  },
  {
    "text": "stuff so like uh that makes me mad",
    "duration": 4139,
    "offset": 709140
  },
  {
    "text": "whatever",
    "duration": 3299,
    "offset": 711720
  },
  {
    "text": "um but by the time like I got my first",
    "duration": 3901,
    "offset": 713279
  },
  {
    "text": "big boy job and was able to afford the",
    "duration": 4080,
    "offset": 715019
  },
  {
    "text": "quest I like every time I put it on I",
    "duration": 3540,
    "offset": 717180
  },
  {
    "text": "just feel like I'm in awe that something",
    "duration": 4320,
    "offset": 719100
  },
  {
    "text": "like this can even exist like you put",
    "duration": 5460,
    "offset": 720720
  },
  {
    "text": "two little tiny like computer screens on",
    "duration": 4620,
    "offset": 723420
  },
  {
    "text": "your eyeballs and then you're just",
    "duration": 3300,
    "offset": 726180
  },
  {
    "text": "somewhere else entirely and that just",
    "duration": 3600,
    "offset": 728040
  },
  {
    "text": "like it's like magic",
    "duration": 3840,
    "offset": 729480
  },
  {
    "text": "it's really like being somewhere else",
    "duration": 3840,
    "offset": 731640
  },
  {
    "text": "and when you're somewhere else you can",
    "duration": 3420,
    "offset": 733320
  },
  {
    "text": "probably be someone else",
    "duration": 5359,
    "offset": 735480
  },
  {
    "text": "and that's kind of the let me merge",
    "duration": 4099,
    "offset": 736740
  },
  {
    "text": "um",
    "duration": 2120,
    "offset": 744480
  },
  {
    "text": "so that's why I like the genre of VR I'm",
    "duration": 6580,
    "offset": 747680
  },
  {
    "text": "really excited for what the upcoming",
    "duration": 4620,
    "offset": 751800
  },
  {
    "text": "like games experiences and other things",
    "duration": 4620,
    "offset": 754260
  },
  {
    "text": "are coming there's been a lot of really",
    "duration": 3840,
    "offset": 756420
  },
  {
    "text": "insane work people have done with it",
    "duration": 3000,
    "offset": 758880
  },
  {
    "text": "like I used to call it the freemium",
    "duration": 3780,
    "offset": 760260
  },
  {
    "text": "platforms like back in the day all space",
    "duration": 4320,
    "offset": 761880
  },
  {
    "text": "was like the big thing it was this",
    "duration": 3720,
    "offset": 764040
  },
  {
    "text": "platform powered by Microsoft where you",
    "duration": 3360,
    "offset": 766200
  },
  {
    "text": "could import a lot of uh",
    "duration": 3600,
    "offset": 767760
  },
  {
    "text": "Unity Unity being like one of the game",
    "duration": 3719,
    "offset": 769560
  },
  {
    "text": "Frameworks like a lot of unity",
    "duration": 3840,
    "offset": 771360
  },
  {
    "text": "experiences into it it was pretty cool I",
    "duration": 3360,
    "offset": 773279
  },
  {
    "text": "wish I had more time to play with it I",
    "duration": 2639,
    "offset": 775200
  },
  {
    "text": "just",
    "duration": 2521,
    "offset": 776639
  },
  {
    "text": "spend more time learning how to make it",
    "duration": 2521,
    "offset": 777839
  },
  {
    "text": "rather than experiencing other people's",
    "duration": 3359,
    "offset": 779160
  },
  {
    "text": "stuff but from the few things I have had",
    "duration": 3900,
    "offset": 780360
  },
  {
    "text": "a chance to experience it's like",
    "duration": 3841,
    "offset": 782519
  },
  {
    "text": "it's breathtaking is the kind of thing",
    "duration": 5759,
    "offset": 784260
  },
  {
    "text": "and I think the medium of so when you",
    "duration": 6120,
    "offset": 786360
  },
  {
    "text": "read a book like I still like books to",
    "duration": 4141,
    "offset": 790019
  },
  {
    "text": "this day um I don't read them as much",
    "duration": 4140,
    "offset": 792480
  },
  {
    "text": "anymore because uh I'm stuck driving the",
    "duration": 4619,
    "offset": 794160
  },
  {
    "text": "car as you can kind of see and I feel",
    "duration": 3120,
    "offset": 796620
  },
  {
    "text": "like if you're sitting down you should",
    "duration": 2761,
    "offset": 798779
  },
  {
    "text": "be doing something productive",
    "duration": 3240,
    "offset": 799740
  },
  {
    "text": "I don't know",
    "duration": 2760,
    "offset": 801540
  },
  {
    "text": "um but",
    "duration": 3120,
    "offset": 802980
  },
  {
    "text": "I do everything books by books when you",
    "duration": 3240,
    "offset": 804300
  },
  {
    "text": "read books it's kind of like you read",
    "duration": 3660,
    "offset": 806100
  },
  {
    "text": "the words and in your mind you kind of",
    "duration": 5220,
    "offset": 807540
  },
  {
    "text": "form the story of what's Happening",
    "duration": 4379,
    "offset": 809760
  },
  {
    "text": "so everyone has like a slightly",
    "duration": 2819,
    "offset": 812760
  },
  {
    "text": "differentiation of like the way the",
    "duration": 3421,
    "offset": 814139
  },
  {
    "text": "characters look the way they talk like",
    "duration": 3241,
    "offset": 815579
  },
  {
    "text": "we all read the same words but we have",
    "duration": 2579,
    "offset": 817560
  },
  {
    "text": "different interpretations like how they",
    "duration": 2400,
    "offset": 818820
  },
  {
    "text": "come in",
    "duration": 3181,
    "offset": 820139
  },
  {
    "text": "and then the movie movies are great too",
    "duration": 3419,
    "offset": 821220
  },
  {
    "text": "I'm starting to have like a better",
    "duration": 3000,
    "offset": 823320
  },
  {
    "text": "appreciation for movies ever since I",
    "duration": 3841,
    "offset": 824639
  },
  {
    "text": "started hang out with like this uh movie",
    "duration": 4519,
    "offset": 826320
  },
  {
    "text": "watching group in like town",
    "duration": 5400,
    "offset": 828480
  },
  {
    "text": "and it's cool because you get to see a",
    "duration": 5141,
    "offset": 830839
  },
  {
    "text": "story told Through The Eyes of the",
    "duration": 5160,
    "offset": 833880
  },
  {
    "text": "director so like you have to see",
    "duration": 4680,
    "offset": 835980
  },
  {
    "text": "what they envisioned for you to see in",
    "duration": 3000,
    "offset": 839040
  },
  {
    "text": "every scene and that's how you immerse",
    "duration": 4919,
    "offset": 840660
  },
  {
    "text": "yourself and you get like a closer",
    "duration": 5820,
    "offset": 842040
  },
  {
    "text": "like a closer",
    "duration": 3560,
    "offset": 845579
  },
  {
    "text": "unit",
    "duration": 3900,
    "offset": 847860
  },
  {
    "text": "uni singular",
    "duration": 4841,
    "offset": 849139
  },
  {
    "text": "big words you get mostly you get",
    "duration": 3960,
    "offset": 851760
  },
  {
    "text": "basically the same uh experience like",
    "duration": 3000,
    "offset": 853980
  },
  {
    "text": "for everyone",
    "duration": 2640,
    "offset": 855720
  },
  {
    "text": "and the other things take differently I",
    "duration": 3539,
    "offset": 856980
  },
  {
    "text": "like the way interprets scenes but it's",
    "duration": 4260,
    "offset": 858360
  },
  {
    "text": "very much like it's made for you kind of",
    "duration": 4201,
    "offset": 860519
  },
  {
    "text": "thing and VR is kind of like this very",
    "duration": 4320,
    "offset": 862620
  },
  {
    "text": "new realm that's like I would say very",
    "duration": 4500,
    "offset": 864720
  },
  {
    "text": "unexplored it recently became accessible",
    "duration": 3420,
    "offset": 866940
  },
  {
    "text": "in the sense that like you know earlier",
    "duration": 3480,
    "offset": 869220
  },
  {
    "text": "I said it costs like around 4K",
    "duration": 4320,
    "offset": 870360
  },
  {
    "text": "we even get the headset and the computer",
    "duration": 4500,
    "offset": 872700
  },
  {
    "text": "now the quest bumped down to like around",
    "duration": 5339,
    "offset": 874680
  },
  {
    "text": "400 is probably like less than that like",
    "duration": 6060,
    "offset": 877200
  },
  {
    "text": "on eBay or something like that",
    "duration": 4981,
    "offset": 880019
  },
  {
    "text": "that one is genre where you are in the",
    "duration": 3240,
    "offset": 883260
  },
  {
    "text": "story and now you have the choice to",
    "duration": 2940,
    "offset": 885000
  },
  {
    "text": "either experience it or maybe even do",
    "duration": 2220,
    "offset": 886500
  },
  {
    "text": "things",
    "duration": 3180,
    "offset": 887940
  },
  {
    "text": "but it's uh it's a very hard I'm not",
    "duration": 3780,
    "offset": 888720
  },
  {
    "text": "seeing like a lot of new things come out",
    "duration": 3300,
    "offset": 891120
  },
  {
    "text": "like all the things that do come out",
    "duration": 3480,
    "offset": 892500
  },
  {
    "text": "the biggest complaint I see in VR is",
    "duration": 2760,
    "offset": 894420
  },
  {
    "text": "like none of the games that you play",
    "duration": 3240,
    "offset": 895980
  },
  {
    "text": "stick with you kind of thing",
    "duration": 4800,
    "offset": 897180
  },
  {
    "text": "like you know Code Geass is",
    "duration": 4260,
    "offset": 899220
  },
  {
    "text": "I I guess I'll say it's my favorite",
    "duration": 3359,
    "offset": 901980
  },
  {
    "text": "animes like I haven't watched it in",
    "duration": 3479,
    "offset": 903480
  },
  {
    "text": "probably over a decade but like a lot of",
    "duration": 3240,
    "offset": 905339
  },
  {
    "text": "it stuck with me kind of thing",
    "duration": 3301,
    "offset": 906959
  },
  {
    "text": "Sword Art sticks with me because like",
    "duration": 3481,
    "offset": 908579
  },
  {
    "text": "it's everywhere in my life I like I make",
    "duration": 5160,
    "offset": 910260
  },
  {
    "text": "it that way but uh",
    "duration": 5339,
    "offset": 912060
  },
  {
    "text": "the story even if my watch that Series",
    "duration": 3840,
    "offset": 915420
  },
  {
    "text": "in like a while um it sticks with me",
    "duration": 3961,
    "offset": 917399
  },
  {
    "text": "right but there's not been like a VR",
    "duration": 4379,
    "offset": 919260
  },
  {
    "text": "story experience game that has stuck",
    "duration": 5880,
    "offset": 921360
  },
  {
    "text": "with me longer than like the one two",
    "duration": 5281,
    "offset": 923639
  },
  {
    "text": "five ten hours of me playing the kind of",
    "duration": 2459,
    "offset": 927240
  },
  {
    "text": "thing",
    "duration": 4020,
    "offset": 928920
  },
  {
    "text": "so that's kind of why I'm invested in",
    "duration": 4561,
    "offset": 929699
  },
  {
    "text": "making",
    "duration": 4019,
    "offset": 932940
  },
  {
    "text": "an experience like that",
    "duration": 3960,
    "offset": 934260
  },
  {
    "text": "um and I spent the last couple years",
    "duration": 2641,
    "offset": 936959
  },
  {
    "text": "trying to figure out just how to do that",
    "duration": 3179,
    "offset": 938220
  },
  {
    "text": "like it was so",
    "duration": 4200,
    "offset": 939600
  },
  {
    "text": "damn frustrating to developing VR like",
    "duration": 3781,
    "offset": 941399
  },
  {
    "text": "even just like a year or two ago like",
    "duration": 3479,
    "offset": 943800
  },
  {
    "text": "prior to coping it's because the tooling",
    "duration": 5040,
    "offset": 945180
  },
  {
    "text": "was just so so ask dude",
    "duration": 4141,
    "offset": 947279
  },
  {
    "text": "um now we're in like a slightly better",
    "duration": 2700,
    "offset": 950220
  },
  {
    "text": "place a lot more documentation a lot",
    "duration": 3240,
    "offset": 951420
  },
  {
    "text": "more examples online a lot of people are",
    "duration": 4919,
    "offset": 952920
  },
  {
    "text": "sharing their their VR like um",
    "duration": 4560,
    "offset": 954660
  },
  {
    "text": "games or something like that so like you",
    "duration": 2881,
    "offset": 957839
  },
  {
    "text": "have a basis to work off of",
    "duration": 3720,
    "offset": 959220
  },
  {
    "text": "so that's kind of the big thing I'm",
    "duration": 3660,
    "offset": 960720
  },
  {
    "text": "working on right now I'm putting it on",
    "duration": 4139,
    "offset": 962940
  },
  {
    "text": "the charts I'm putting it on the books",
    "duration": 4800,
    "offset": 964380
  },
  {
    "text": "the thing I'm working on right now with",
    "duration": 3301,
    "offset": 967079
  },
  {
    "text": "a couple friends",
    "duration": 2760,
    "offset": 969180
  },
  {
    "text": "and I'm actually gonna make a trailer",
    "duration": 3480,
    "offset": 970380
  },
  {
    "text": "for this properly like later today",
    "duration": 4100,
    "offset": 971940
  },
  {
    "text": "is",
    "duration": 7590,
    "offset": 973860
  },
  {
    "text": "[Laughter]",
    "duration": 5410,
    "offset": 976040
  },
  {
    "text": "so the the you know like I don't know if",
    "duration": 4979,
    "offset": 981660
  },
  {
    "text": "you've watched High School Musical",
    "duration": 5099,
    "offset": 984420
  },
  {
    "text": "so that was like the code name for the",
    "duration": 3961,
    "offset": 986639
  },
  {
    "text": "production that they were going to",
    "duration": 2940,
    "offset": 989519
  },
  {
    "text": "release through Disney",
    "duration": 3060,
    "offset": 990600
  },
  {
    "text": "um and then they just never came up with",
    "duration": 3060,
    "offset": 992459
  },
  {
    "text": "a better name so they just cut past your",
    "duration": 4440,
    "offset": 993660
  },
  {
    "text": "physical so we're the code name for the",
    "duration": 4320,
    "offset": 995519
  },
  {
    "text": "project working on is a Cryptids dating",
    "duration": 2700,
    "offset": 998100
  },
  {
    "text": "simulator",
    "duration": 3180,
    "offset": 999839
  },
  {
    "text": "so it is as",
    "duration": 5219,
    "offset": 1000800
  },
  {
    "text": "it's as funny as it sounds kind of thing",
    "duration": 5341,
    "offset": 1003019
  },
  {
    "text": "um what the premise we landed with right",
    "duration": 5221,
    "offset": 1006019
  },
  {
    "text": "now is you are a new member of A Faculty",
    "duration": 4440,
    "offset": 1008360
  },
  {
    "text": "that turns out to be a bunch of",
    "duration": 3060,
    "offset": 1011240
  },
  {
    "text": "professors that are Cryptids that are",
    "duration": 3420,
    "offset": 1012800
  },
  {
    "text": "training their students",
    "duration": 4500,
    "offset": 1014300
  },
  {
    "text": "to immerse themselves in the human world",
    "duration": 3960,
    "offset": 1016220
  },
  {
    "text": "and",
    "duration": 3360,
    "offset": 1018800
  },
  {
    "text": "this idea is so",
    "duration": 4200,
    "offset": 1020180
  },
  {
    "text": "great because uh most of the time when",
    "duration": 3720,
    "offset": 1022160
  },
  {
    "text": "you work on things like that aren't",
    "duration": 4020,
    "offset": 1024380
  },
  {
    "text": "directly you know monetarily related you",
    "duration": 4260,
    "offset": 1025880
  },
  {
    "text": "need to like basically like be pulling",
    "duration": 2880,
    "offset": 1028400
  },
  {
    "text": "teeth to have people join your project",
    "duration": 3179,
    "offset": 1030140
  },
  {
    "text": "right because this is like their time",
    "duration": 5820,
    "offset": 1031280
  },
  {
    "text": "their their precious uh scarce after",
    "duration": 5161,
    "offset": 1033319
  },
  {
    "text": "work time",
    "duration": 3300,
    "offset": 1037100
  },
  {
    "text": "that are dedicated to this thing that's",
    "duration": 3420,
    "offset": 1038480
  },
  {
    "text": "essentially just like we don't know if",
    "duration": 2519,
    "offset": 1040400
  },
  {
    "text": "we're going to see it or not but like",
    "duration": 2700,
    "offset": 1041900
  },
  {
    "text": "the idea is just so",
    "duration": 4140,
    "offset": 1042918
  },
  {
    "text": "invigorating like so we want to see this",
    "duration": 4260,
    "offset": 1044600
  },
  {
    "text": "through kind of thing",
    "duration": 4381,
    "offset": 1047058
  },
  {
    "text": "that that everyone came together that",
    "duration": 3840,
    "offset": 1048860
  },
  {
    "text": "was Project like on their own which I",
    "duration": 4320,
    "offset": 1051440
  },
  {
    "text": "think was like amazing so I'm the lead",
    "duration": 4560,
    "offset": 1052700
  },
  {
    "text": "Dev for this team I'm trying to make",
    "duration": 3180,
    "offset": 1055760
  },
  {
    "text": "this like in a VR",
    "duration": 2760,
    "offset": 1057260
  },
  {
    "text": "um experience",
    "duration": 2880,
    "offset": 1058940
  },
  {
    "text": "so you can access it through like your",
    "duration": 3960,
    "offset": 1060020
  },
  {
    "text": "phone your desktop your actual headset",
    "duration": 4080,
    "offset": 1061820
  },
  {
    "text": "we have a story writer and we have an",
    "duration": 3960,
    "offset": 1063980
  },
  {
    "text": "artist right now instead of marketer I",
    "duration": 4200,
    "offset": 1065900
  },
  {
    "text": "guess it's gonna be meman on like these",
    "duration": 5580,
    "offset": 1067940
  },
  {
    "text": "blogs but this is this is my mark this",
    "duration": 5340,
    "offset": 1070100
  },
  {
    "text": "is going to be the beginning of uh Sword",
    "duration": 4740,
    "offset": 1073520
  },
  {
    "text": "Art Online to uh code name good things",
    "duration": 3900,
    "offset": 1075440
  },
  {
    "text": "to me later",
    "duration": 2520,
    "offset": 1078260
  },
  {
    "text": "um the official name right now is cloud",
    "duration": 2400,
    "offset": 1079340
  },
  {
    "text": "math",
    "duration": 3480,
    "offset": 1080780
  },
  {
    "text": "uh I don't remember the acronym top of",
    "duration": 4980,
    "offset": 1081740
  },
  {
    "text": "my head but something like uh Crypt is",
    "duration": 5520,
    "offset": 1084260
  },
  {
    "text": "learning our ways",
    "duration": 5100,
    "offset": 1086720
  },
  {
    "text": "uh near",
    "duration": 5040,
    "offset": 1089780
  },
  {
    "text": "math it's basically just like humans",
    "duration": 5340,
    "offset": 1091820
  },
  {
    "text": "trying to learn math",
    "duration": 3500,
    "offset": 1094820
  },
  {
    "text": "human",
    "duration": 3300,
    "offset": 1097160
  },
  {
    "text": "how to be humans",
    "duration": 4300,
    "offset": 1098320
  },
  {
    "text": "God what a mess this video has been um",
    "duration": 3660,
    "offset": 1100460
  },
  {
    "text": "but yeah this is my mark this is the",
    "duration": 3000,
    "offset": 1102620
  },
  {
    "text": "beginning of beautiful Journey",
    "duration": 3419,
    "offset": 1104120
  },
  {
    "text": "um yeah um we are at the end of our",
    "duration": 5580,
    "offset": 1105620
  },
  {
    "text": "video thanks for watching",
    "duration": 8640,
    "offset": 1107539
  },
  {
    "text": "uh if you like my stoof consider",
    "duration": 6960,
    "offset": 1111200
  },
  {
    "text": "checking out Le website or maybe sending",
    "duration": 4500,
    "offset": 1116179
  },
  {
    "text": "a lead donation of a lead Dogecoin",
    "duration": 5040,
    "offset": 1118160
  },
  {
    "text": "actually that's a Dogecoin um but you",
    "duration": 4021,
    "offset": 1120679
  },
  {
    "text": "can check it out",
    "duration": 3180,
    "offset": 1123200
  },
  {
    "text": "um figuring out the rewards here right",
    "duration": 3240,
    "offset": 1124700
  },
  {
    "text": "now for what I can give for you giving",
    "duration": 5280,
    "offset": 1126380
  },
  {
    "text": "your hard-earned skrilla over to me",
    "duration": 5040,
    "offset": 1127940
  },
  {
    "text": "um and it's not even just writing like a",
    "duration": 2519,
    "offset": 1131660
  },
  {
    "text": "comment just like saying like hey like",
    "duration": 2760,
    "offset": 1132980
  },
  {
    "text": "this video or like hey this video sucked",
    "duration": 3901,
    "offset": 1134179
  },
  {
    "text": "like just anything just uh appreciate it",
    "duration": 6319,
    "offset": 1135740
  },
  {
    "text": "so yeah thanks for watching",
    "duration": 3979,
    "offset": 1138080
  }
]